Infant and young child feeding indicators sample dataset — iycfData • riycf
…
    Source

    CARE Myanmar

    Examples

iycfData
#> # A tibble: 359 × 46
#>     csex calc_age_months child_bf child_eibf child_eibf_hrs child_eibf_days
#>    <int>           <int>    <int>      <int>          <int>           <int>
#>  1     1               5        1          0             NA              NA
#>  2     1               4        1          0             NA              NA
#>  3     1               2        1          0             NA              NA
#>  4     1               0        1          0             NA              NA
#>  5     1               2        1          0             NA              NA
#>  6     1               2        1          0             NA              NA
#>  7     1               2        0         NA             NA              NA
#>  8     1               1        1          0             NA              NA
#>  9     1               5        1          1              2              NA
#> 10     1               5        1          0             NA              NA
#> # ℹ 349 more rows
#> # ℹ 40 more variables: bf_2days <int>, child_bfyest <int>, bf_bottle <int>,
#> #   child_water <int>, child_bms <int>, child_bms_freq <int>, child_milk <int>,
#> #   child_milk_freq <int>, child_milk_sweet <int>, child_mproduct <int>,
#> #   child_mproduct_freq <lgl>, child_mproduct_sweet <lgl>,
#> #   child_chocolate <int>, child_juice <int>, child_soda <int>,
#> #   child_tea <int>, child_tea_sweet <int>, child_broth <int>, …
…
